# Blender MTL File: 'lion.blend'
# Material Count: 1

newmtl SVGMat.001
Ns 323.999994
Ka 1.000000 1.000000 1.000000
Kd 1.000000 0.376262 0.000000
Ks 0.500000 0.500000 0.500000
Ke 0.0 0.0 0.0
Ni 1.000000
d 1.000000
illum 2
